{"hash":"d3300f17e3d390082b5068888f6b685e8efbebac","data":{"tag":{"title":"coding","belongsTo":{"totalCount":4,"pageInfo":{"totalPages":2,"currentPage":2},"edges":[{"node":{"title":"Vue vs React Comparison","timeToRead":1,"date":"March 27, 2019","path":"/blog/post/vue-vs-react-comparison/","summary":"Lorem ipsum dolor sit amet consectetur adipisicing elit. Hic rerum earum quos explicabo suscipit maxime iste qui nihil. Reiciendis asperiores minus necessitatibus","tags":[{"title":"frontend"},{"title":"vue"},{"title":"react"},{"title":"coding"}]}}]}}},"context":{}}