{"hash":"d3300f17e3d390082b5068888f6b685e8efbebac","data":{"posts":{"totalCount":8,"pageInfo":{"totalPages":3,"currentPage":3},"edges":[{"node":{"id":"dc174c4a000e2a1318a59116ef4e70e9","title":"Mac Pro 2019 Review","date":"March 11, 2019","summary":"Lorem ipsum dolor sit amet consectetur adipisicing elit. Hic rerum earum quos explicabo suscipit maxime iste qui nihil. Reiciendis asperiores minus necessitatibus","timeToRead":1,"path":"/blog/post/mac-pro-2019-review/","feature":{"image":"/uploads/posts/git/git-tutorials.svg","alt":"how to configure a global gitignore file"},"categories":[{"id":"writing","title":"writing","path":"/category/writing/"},{"id":"coding","title":"coding","path":"/category/coding/"}]}},{"node":{"id":"3d8e37e4eebeeccdc0c3bbc9d5dd0e98","title":"Design for Developers","date":"March 7, 2019","summary":"Lorem ipsum dolor sit amet consectetur adipisicing elit. Hic rerum earum quos explicabo suscipit maxime iste qui nihil. Reiciendis asperiores minus necessitatibus","timeToRead":1,"path":"/blog/post/design-for-developers/","feature":{"image":"/uploads/posts/git/git-tutorials.svg","alt":"how to configure a global gitignore file"},"categories":[{"id":"writing","title":"writing","path":"/category/writing/"},{"id":"coding","title":"coding","path":"/category/coding/"}]}}]}},"context":{}}